﻿{
  "$schema": "http://json.schemastore.org/launchsettings.json",
  "profiles": {
    "Crnc.Oms.Notification.Gateway": {
      "commandName": "Project",
      "launchBrowser": true,
      "launchUrl": "swagger",
      "applicationUrl": "http://localhost:8100",
      "environmentVariables": {
        "ASPNETCORE_ENVIRONMENT": "Development"
      }
    }
  }
}
